{"componentChunkName":"component---src-templates-index-jsx","path":"/2","result":{"data":{"authors":{"edges":[{"node":{"id":"8b2fa00a-dfb8-5b8b-a64c-237f0f52da0e","uid":"katan","name":"Katan Patel","image":"/images/authors/katan.jpg","url":"https://katansapdevelop.github.io/","bio":"SAP Developer & $crypto trader. Loves Coding, cooking, gaming, football, electronic music, MTB & fishing"}},{"node":{"id":"b60513a7-d5d5-5201-a47d-c7a73e3b4a63","uid":"nabheet","name":"Nabheet Madan","image":"/images/authors/nabheet.jpg","url":"https://twitter.com/nabheet","bio":"Technology Enthusiast"}},{"node":{"id":"3244bc84-72d0-55b4-a96e-be84abdc51bb","uid":"saponlinetrack","name":"SAP Online Track","image":"/images/authors/saponlinetrack.jpg","url":"https://saponlinetrack.github.io/","bio":"A free SAP Community event hosted entirely online. We are fundraising for Girls Who Code. Please support us on https://classy.org/team/285233"}},{"node":{"id":"56d14f96-fa0b-5784-b3fa-e3d66698628c","uid":"ronnie","name":"Ronnie André Bjørvik Sletta","image":"/images/authors/ronnie.jpg","url":"https://www.rikosjett.com/","bio":"Father. Husband. Nörd. Developer. Army veteran. Making magic with computers & stuff. SAP Champion since 2019. This is me"}},{"node":{"id":"516e5fea-08ed-5ec2-a1b1-9fa45775fac4","uid":"jakob","name":"Jakob Kjaer","image":"/images/authors/jakob.jpg","url":"https://sitbne.github.io/","bio":"- Family man - Eternal learner - Design thinking evangelist - Relentless optimist - Developer in disguise"}}]}},"pageContext":{"nodes":[{"node":{"frontmatter":{"title":"Keen to Speak","tags":["speaking","presenting"],"cover":"/images/post-header.png","date":"2020-02-19","category":"general","author":"saponlinetrack"},"fields":{"slug":"/keen-to-speak"},"excerpt":"How can I present We'd love to hear from you if you are keen to share something with the community.  Topics are not exclusive to SAP related…","timeToRead":1}},{"node":{"frontmatter":{"title":"Volunteering","tags":["volunteering"],"cover":"/images/post-header.png","date":"2020-02-19","category":"general","author":"saponlinetrack"},"fields":{"slug":"/volunteering"},"excerpt":"How can I volunteer If you want to help out with the May 2020 Event, please complete this form.  Events like this only run with the support…","timeToRead":1}}],"page":2,"pages":2,"total":7,"limit":5,"prev":"/"}}}