{"componentChunkName":"component---src-templates-index-jsx","path":"/","result":{"data":{"authors":{"edges":[{"node":{"id":"516e5fea-08ed-5ec2-a1b1-9fa45775fac4","uid":"jakob","name":"Jakob Kjaer","image":"/images/authors/jakob.jpg","url":"https://sitbne.github.io/","bio":"- Family man - Eternal learner - Design thinking evangelist - Relentless optimist - Developer in disguise"}},{"node":{"id":"8b2fa00a-dfb8-5b8b-a64c-237f0f52da0e","uid":"katan","name":"Katan Patel","image":"/images/authors/katan.jpg","url":"https://katansapdevelop.github.io/","bio":"SAP Developer & $crypto trader. Loves Coding, cooking, gaming, football, electronic music, MTB & fishing"}},{"node":{"id":"b60513a7-d5d5-5201-a47d-c7a73e3b4a63","uid":"nabheet","name":"Nabheet Madan","image":"/images/authors/nabheet.jpg","url":"https://twitter.com/nabheet","bio":"Technology Enthusiast"}},{"node":{"id":"56d14f96-fa0b-5784-b3fa-e3d66698628c","uid":"ronnie","name":"Ronnie André Bjørvik Sletta","image":"/images/authors/ronnie.jpg","url":"https://www.rikosjett.com/","bio":"Father. Husband. Nörd. Developer. Army veteran. Making magic with computers & stuff. SAP Champion since 2019. This is me"}},{"node":{"id":"3244bc84-72d0-55b4-a96e-be84abdc51bb","uid":"saponlinetrack","name":"SAP Online Track","image":"/images/authors/saponlinetrack.jpg","url":"https://saponlinetrack.github.io/","bio":"A free SAP Community event hosted entirely online. We are fundraising for Girls Who Code. Please support us on https://classy.org/team/285233"}}]}},"pageContext":{"nodes":[{"node":{"frontmatter":{"title":"Speakers Guide","tags":["speaking","presenting"],"cover":"/images/post-header.png","date":"2020-05-20","category":"general","author":"katan"},"fields":{"slug":"/speakers-guide"},"excerpt":"Some of you may already be familiar with public speaking and streaming.  However for those who are less so,  we compiled a few basic tips to…","timeToRead":2}},{"node":{"frontmatter":{"title":"Site Blogging","tags":["Blogging"],"cover":"/images/post-header.png","date":"2020-05-05","category":"Blogging","author":"katan"},"fields":{"slug":"/site-blogging"},"excerpt":"Description As a speaker posting your own blog post to the SAP Online Track Site can really help promote your session(s) and help you engage…","timeToRead":4}},{"node":{"frontmatter":{"title":"How to present at SAP Online Track","tags":["presenting"],"cover":"/images/post-header.png","date":"2020-04-14","category":"general","author":"ronnie"},"fields":{"slug":"/how-to-present-at-sap-online-track"},"excerpt":"How to present at SAP Online Track With May closing in, and SAP Online Track approaching, it is time to have a look at the different options…","timeToRead":3}},{"node":{"frontmatter":{"title":"May 2020 Event","tags":["JavaScript","UI5","SAP Cloud","Node","ABAP","HANA","Event"],"cover":"/images/post-header.png","date":"2020-02-20","category":"tech","author":"katan"},"fields":{"slug":"/may-2020-event"},"excerpt":"Description It will be an online-only event spanning 24 hours. The intent is that we can then cover all time zones. We are relying on the…","timeToRead":3}},{"node":{"frontmatter":{"title":"Code Of Conduct","tags":["speaking","presenting"],"cover":"/images/post-header.png","date":"2020-02-19","category":"general","author":"saponlinetrack"},"fields":{"slug":"/code-of-conduct"},"excerpt":"All attendees, speakers, sponsors and volunteers at our event are required to agree with the following code of conduct. Organisers will…","timeToRead":2}}],"page":1,"pages":2,"total":7,"limit":5,"next":"/2"}}}